
 ### inside SPenv_free()
 SPmm object : location 0x1653cfa0, table capacity 1000, hash capacity 1000
                  active         idle       in-use    requested     released
  # buffers            3          103          106         2173         2170
  # bytes            336       224280       224616      1682704      1682368
 active lists, 3 buffers active, 336 bytes active
    active list 64
    < loc 0, id 1, size 14, ts 0, buf 0x16545ee0, val  5.10428e-02 link -1>
    active list 192
    < loc 1, id 2, size 14, ts 0, buf 0x16545f60, val  2.69591e-01 link -1>
    active list 320
    < loc 2, id 3, size 14, ts 0, buf 0x16545fe0, val  9.49111e-01 link -1>